NAME	AGE		#_OF_POKEMON_CARDS
Rashawn Edison			15		369
Cebrail Alagona			16		358
Phineus Terry 16		202
Cruz Emile 17		210
Vlasta Parodi 17		126
Stana Benedetti 17		157
Ilija Li 17		97
Alfbern Knopp 16		146
Krisztina Sorensson 16		312
Jagadisha Kunz 15		329
