<?xml version="1.0" encoding="UTF-8" standalone="no"?>
<svg
   xmlns:dc="http://purl.org/dc/elements/1.1/"
   xmlns:cc="http://creativecommons.org/ns#"
   xmlns:rdf="http://www.w3.org/1999/02/22-rdf-syntax-ns#"
   xmlns:svg="http://www.w3.org/2000/svg"
   xmlns="http://www.w3.org/2000/svg"
   xmlns:sodipodi="http://sodipodi.sourceforge.net/DTD/sodipodi-0.dtd"
   xmlns:inkscape="http://www.inkscape.org/namespaces/inkscape"
   width="210mm"
   height="297mm"
   viewBox="0 0 210 297"
   version="1.1"
   id="svg8"
   inkscape:version="1.0.2 (e86c870879, 2021-01-15)"
   sodipodi:docname="bitwise example.svg">
  <defs
     id="defs2">
    <rect
       x="-204.07921"
       y="-372.34537"
       width="75.622686"
       height="38.350473"
       id="rect86" />
    <rect
       x="-223.36946"
       y="-375.14657"
       width="71.882618"
       height="52.304096"
       id="rect54" />
    <rect
       x="-224.06341"
       y="-369.9577"
       width="18.122155"
       height="21.409413"
       id="rect48" />
    <rect
       x="-213.50579"
       y="-365.36959"
       width="701.4439"
       height="290.81715"
       id="rect12" />
    <rect
       x="-213.50579"
       y="-365.36959"
       width="701.4439"
       height="290.81715"
       id="rect20" />
    <rect
       x="-213.50579"
       y="-365.36959"
       width="701.4439"
       height="290.81715"
       id="rect26" />
    <rect
       x="-213.50579"
       y="-365.36959"
       width="701.4439"
       height="290.81715"
       id="rect32" />
    <rect
       x="-213.50579"
       y="-365.36959"
       width="701.4439"
       height="290.81715"
       id="rect38" />
    <rect
       x="-213.50579"
       y="-365.36959"
       width="701.4439"
       height="290.81715"
       id="rect44" />
    <rect
       x="-223.36946"
       y="-375.14657"
       width="71.882618"
       height="52.304096"
       id="rect62" />
    <rect
       x="-213.50579"
       y="-365.36959"
       width="701.4439"
       height="290.81715"
       id="rect74" />
    <rect
       x="-213.50579"
       y="-365.36959"
       width="701.4439"
       height="290.81715"
       id="rect80" />
    <rect
       x="-204.07921"
       y="-372.34537"
       width="75.622686"
       height="38.350473"
       id="rect94" />
  </defs>
  <sodipodi:namedview
     id="base"
     pagecolor="#ffffff"
     bordercolor="#666666"
     borderopacity="1.0"
     inkscape:pageopacity="0.0"
     inkscape:pageshadow="2"
     inkscape:zoom="1.979899"
     inkscape:cx="-610.45601"
     inkscape:cy="-1270.4307"
     inkscape:document-units="mm"
     inkscape:current-layer="layer1"
     inkscape:document-rotation="0"
     showgrid="false"
     inkscape:window-width="1920"
     inkscape:window-height="995"
     inkscape:window-x="0"
     inkscape:window-y="24"
     inkscape:window-maximized="1" />
  <metadata
     id="metadata5">
    <rdf:RDF>
      <cc:Work
         rdf:about="">
        <dc:format>image/svg+xml</dc:format>
        <dc:type
           rdf:resource="http://purl.org/dc/dcmitype/StillImage" />
        <dc:title />
      </cc:Work>
    </rdf:RDF>
  </metadata>
  <g
     inkscape:label="Layer 1"
     inkscape:groupmode="layer"
     id="layer1">
    <rect
       style="fill:#ffffff;stroke:#000000;stroke-width:2.06264"
       id="rect82"
       width="137.8129"
       height="46.768669"
       x="-230.1835"
       y="-374.9238"
       inkscape:export-xdpi="300"
       inkscape:export-ydpi="300" />
    <text
       xml:space="preserve"
       id="text10"
       style="font-size:10.5833px;line-height:1.25;font-family:'Ubuntu Mono';-inkscape-font-specification:'Ubuntu Mono';white-space:pre;shape-inside:url(#rect12);"
       inkscape:export-xdpi="96"
       inkscape:export-ydpi="96"><tspan
         x="-213.50586"
         y="-355.49818"><tspan>11110000</tspan></tspan></text>
    <text
       xml:space="preserve"
       id="text18"
       style="font-size:10.5833px;line-height:1.25;font-family:'Ubuntu Mono';-inkscape-font-specification:'Ubuntu Mono';white-space:pre;shape-inside:url(#rect20);"
       transform="translate(65.97646)"
       inkscape:export-xdpi="96"
       inkscape:export-ydpi="96"><tspan
         x="-213.50586"
         y="-355.49818"><tspan>11110000</tspan></tspan></text>
    <text
       xml:space="preserve"
       id="text24"
       style="font-size:10.5833px;line-height:1.25;font-family:'Ubuntu Mono';-inkscape-font-specification:'Ubuntu Mono';white-space:pre;shape-inside:url(#rect26);"
       transform="translate(0,9.5349102)"
       inkscape:export-xdpi="96"
       inkscape:export-ydpi="96"><tspan
         x="-213.50586"
         y="-355.49818"><tspan>10101010</tspan></tspan></text>
    <text
       xml:space="preserve"
       id="text30"
       style="font-size:10.5833px;line-height:1.25;font-family:'Ubuntu Mono';-inkscape-font-specification:'Ubuntu Mono';white-space:pre;shape-inside:url(#rect32);"
       transform="translate(65.864203,9.5349102)"
       inkscape:export-xdpi="96"
       inkscape:export-ydpi="96"><tspan
         x="-213.50586"
         y="-355.49818"><tspan>10101010</tspan></tspan></text>
    <text
       xml:space="preserve"
       id="text36"
       style="font-size:10.5833px;line-height:1.25;font-family:'Ubuntu Mono';-inkscape-font-specification:'Ubuntu Mono';white-space:pre;shape-inside:url(#rect38);"
       transform="translate(-8.2114976,9.5349102)"
       inkscape:export-xdpi="96"
       inkscape:export-ydpi="96"><tspan
         x="-213.50586"
         y="-355.49818"><tspan>&amp;</tspan></tspan></text>
    <text
       xml:space="preserve"
       id="text42"
       style="font-size:10.5833px;line-height:1.25;font-family:'Ubuntu Mono';-inkscape-font-specification:'Ubuntu Mono';white-space:pre;shape-inside:url(#rect44);"
       transform="translate(59.443138,9.5349102)"
       inkscape:export-xdpi="96"
       inkscape:export-ydpi="96"><tspan
         x="-213.50586"
         y="-355.49818"><tspan>|</tspan></tspan></text>
    <text
       xml:space="preserve"
       id="text46"
       style="font-size:10.5833px;line-height:1.25;font-family:'Ubuntu Mono';-inkscape-font-specification:'Ubuntu Mono';white-space:pre;shape-inside:url(#rect48);"
       transform="translate(1.2729719,-7.2578785)"><tspan
         style="visibility:hidden"
         x="-224.0625"
         y="-338.67787"><tspan
           dx="0 5.2916298 5.2916298 5.2916298 5.2916298 5.2916298 5.2916298 5.2916298 5.2916298 5.2916298">Question 1</tspan></tspan></text>
    <path
       style="fill:none;stroke:#000000;stroke-width:2;stroke-linecap:butt;stroke-linejoin:miter;stroke-opacity:1"
       d="m -220.83369,-342.13096 h 49.80235"
       id="path64"
       inkscape:export-xdpi="96"
       inkscape:export-ydpi="96" />
    <path
       style="fill:none;stroke:#000000;stroke-width:2;stroke-linecap:butt;stroke-linejoin:miter;stroke-opacity:1"
       d="m -153.52808,-342.13096 h 49.80235"
       id="path68"
       inkscape:export-xdpi="96"
       inkscape:export-ydpi="96" />
    <text
       xml:space="preserve"
       id="text72"
       style="font-size:10.5833px;line-height:1.25;font-family:'Ubuntu Mono';-inkscape-font-specification:'Ubuntu Mono';white-space:pre;shape-inside:url(#rect74);"
       transform="translate(0,23.336463)"
       inkscape:export-xdpi="96"
       inkscape:export-ydpi="96"><tspan
         x="-213.50586"
         y="-355.49818"><tspan>10100000</tspan></tspan></text>
    <text
       xml:space="preserve"
       id="text78"
       style="font-size:10.5833px;line-height:1.25;font-family:'Ubuntu Mono';-inkscape-font-specification:'Ubuntu Mono';white-space:pre;shape-inside:url(#rect80);"
       transform="translate(66.036067,23.336463)"
       inkscape:export-xdpi="96"
       inkscape:export-ydpi="96"><tspan
         x="-213.50586"
         y="-355.49818"><tspan>11111010</tspan></tspan></text>
    <text
       xml:space="preserve"
       id="text84"
       style="font-size:7.05556px;line-height:1.25;font-family:'Ubuntu Mono';-inkscape-font-specification:'Ubuntu Mono';white-space:pre;shape-inside:url(#rect86);"
       transform="translate(-3.4870403,-0.96941757)"><tspan
         x="-204.08008"
         y="-365.76504"><tspan
           style="font-size:7.05556px">&amp; = &quot;and&quot;</tspan></tspan></text>
    <text
       xml:space="preserve"
       id="text92"
       style="font-size:7.05556px;line-height:1.25;font-family:'Ubuntu Mono';-inkscape-font-specification:'Ubuntu Mono';white-space:pre;shape-inside:url(#rect94);"
       transform="translate(63.873789,-0.96941757)"><tspan
         x="-204.08008"
         y="-365.76504"><tspan
           style="font-size:7.05556px">| = &quot;or&quot;</tspan></tspan></text>
  </g>
</svg>
